%YAML 1.1
%TAG !u! tag:unity3d.com,2011:
--- !u!114 &11400000
MonoBehaviour:
  m_ObjectHideFlags: 0
  m_CorrespondingSourceObject: {fileID: 0}
  m_PrefabInstance: {fileID: 0}
  m_PrefabAsset: {fileID: 0}
  m_GameObject: {fileID: 0}
  m_Enabled: 1
  m_EditorHideFlags: 0
  m_Script: {fileID: 11500000, guid: 939999b8005544e4ba4d936fad2ba17d, type: 3}
  m_Name: Baia_Dialog_01
  m_EditorClassIdentifier: 
  dialogId: 
  dialogStruct: []
  dialogOptions:
  - responseText: 
  - responseText: 
  - responseText: 
  - responseText: 
  - responseText: 
  - responseText: 
  characterData: {fileID: 0}
