%YAML 1.1
%TAG !u! tag:unity3d.com,2011:
--- !u!1045 &1
EditorBuildSettings:
  m_ObjectHideFlags: 0
  serializedVersion: 2
  m_Scenes:
  - enabled: 1
    path: /Users/nicorottkamp/gad_a18a_gameprojekt1/DatingSim/Assets/Scenes/bibVideoScene.unity
    guid: a95c9650e47874a58a7f9525dd4add43
  - enabled: 1
    path: /Users/nicorottkamp/gad_a18a_gameprojekt1/DatingSim/Assets/Scenes/TeamLogoScene.unity
    guid: 315fd2dad8a8b4693ab30094252dd9c0
  - enabled: 1
    path: /Users/nicorottkamp/gad_a18a_gameprojekt1/DatingSim/Assets/Scenes/SplashScene.unity
    guid: 9fc0d4010bbf28b4594072e72b8655ab
  - enabled: 1
    path: /Users/nicorottkamp/gad_a18a_gameprojekt1/DatingSim/Assets/Scenes/MenuScene.unity
    guid: dc5045ad30a6d4095b15398159669ffa
  - enabled: 1
    path: /Users/nicorottkamp/gad_a18a_gameprojekt1/DatingSim/Assets/Scenes/PlayerConfigScene.unity
    guid: 260ae43d19ac24b0ca22403d4b0da062
  - enabled: 1
    path: /Users/nicorottkamp/gad_a18a_gameprojekt1/DatingSim/Assets/Scenes/GameScene.unity
    guid: f272d6cc7166b46bd8c98b320c4c3466
  - enabled: 1
    path: /Users/nicorottkamp/gad_a18a_gameprojekt1/DatingSim/Assets/Scenes/CreditsScene.unity
    guid: 9f8f52093fa2d4346bd4b30ca53cd0b5
  m_configObjects: {}
